com\training\samplespringapp\mvc\SimulationEmpruntMensualiteController.class
com\training\samplespringapp\mvc\SimulationEmpruntCapaciteController.class
com\training\samplespringapp\mvc\SimulationImpotsController.class
com\training\samplespringapp\SampleSpringApplication.class
