E:\springapp\src\main\java\com\training\samplespringapp\SampleSpringApplication.java
E:\springapp\src\main\java\com\training\samplespringapp\mvc\SimulationEmpruntCapaciteController.java
E:\springapp\src\main\java\com\training\samplespringapp\mvc\SimulationImpotsController.java
E:\springapp\src\main\java\com\training\samplespringapp\mvc\SimulationEmpruntMensualiteController.java
